1 10 20
100 200 125
201 210 89
900 1000 174
1 1 1
42181 281406 443
344105 464746 449
53248 723000 509
143246 504957 449
862868 921668 476
440885 453026 387
716576 936254 525
901996 915441 476
669780 728568 504
695658 875091 525
788189 934117 525
655369 920189 525
65576 926246 525
255583 997587 525
841087 988616 507
488432 683516 509
480989 917582 525
249321 564413 470
663207 741805 504
387160 430033 449
303892 816915 509
358350 395312 436
746785 890389 525
557070 593070 434
484510 932570 525
566762 941544 525
462683 477634 413
756974 920206 525
136101 976200 525
213327 872918 525
783341 888367 525
190086 257634 443
239462 319855 407
557890 764367 509
795044 853194 525
882474 966079 507
10529 987605 525
548797 831417 509
711132 999610 525
826465 957556 525
476693 513954 470
393645 976918 525
452043 630895 509
652912 804560 504
246590 461092 449
67903 722947 509
347638 806387 509
377837 852367 525
120821 921944 525
576308 658844 509
822240 914558 525
83983 173983 383
428094 929457 525
982286 992289 427
520435 885107 525
227730 361913 443
100399 150496 375
588503 614259 403
109915 638085 509
133940 961635 525
718985 817741 468
937592 993983 507
449860 918573 525
567447 637787 509
580929 833498 509
957674 999905 458
166583 966248 525
126450 807175 509
769461 974896 525
210026 410438 449
937771 981114 507
480022 930909 525
787939 960861 525
121867 353953 443
326206 841340 525
701089 744426 504
883309 967353 507
743957 931692 525
582052 880261 525
889960 921374 476
574089 608525 434
790714 909196 525
562740 587415 434
240211 267111 407
945825 986020 458
399221 670373 509
124016 775186 509
717583 797387 468
375904 661418 509
880577 989517 507
773008 817956 468
171220 172336 334
727931 767888 424
25587 637349 509
842739 872806 432
952003 955944 414
831086 938514 525
771068 788248 437
756803 821919 468
849148 896631 445
89406 693852 509
50107 454066 449
627397 758677 504
500012 695399 509
952782 996461 458
62557 466853 449
262941 280584 407
346243 384427 423
576121 772706 509
375753 502547 449
247872 979933 525
299789 977773 525
888845 967884 507
453786 903892 525
207101 852048 525
624067 652220 509
693084 818283 504
636322 936267 525
129691 267656 443
739954 775702 468
29122 943585 525
268727 492444 449
529464 682100 509
532368 548877 452
403643 763239 509
268701 822053 509
833844 929110 525
974535 992710 427
381982 754941 509
791575 850951 525
263228 556715 470
114264 165698 383
227574 746005 509
167768 878735 525
597998 835613 509
646618 964714 525
313399 324594 384
182320 503775 449
850884 907346 445
520575 780079 509
798411 802760 406
324922 735785 509
815045 914984 525
321598 408908 441
365080 924099 525
998254 998487 277
191976 612046 470
27846 938176 525
759637 816589 468
620536 772221 509
