1 10 20
100 200 125
201 210 89
900 1000 174
265175 387648 441
653573 54673 509
257366 678132 509
843272 926376 476
54378 161451 383
461517 752790 509
795632 329838 509
365645 6211 443
343862 806174 509
550685 918105 525
699838 230325 509
734293 636789 504
345256 922809 525
855226 630723 525
58749 83245 351
478200 705884 509
948890 957716 414
827995 552357 509
540418 226990 470
28673 904684 525
48353 419209 449
61246 701992 509
832462 733019 468
491586 632325 509
404112 391524 405
208568 557351 470
41216 268968 443
70849 711043 509
448137 113612 449
566791 630094 509
142147 786744 509
989188 164610 525
550864 528299 452
949478 272459 525
235066 863529 525
493366 248260 449
677428 311012 509
418615 823198 509
238947 361185 441
406047 630127 509
201926 498490 449
402251 394429 405
688347 369965 509
417723 781310 509
182783 751929 509
858530 147290 525
106965 59021 354
178805 455476 449
307431 545684 470
111194 909940 525
571687 946551 525
524545 704699 509
151914 969040 525
770353 455746 509
789264 359029 509
893445 168816 525
757499 421925 509
494803 868326 525
437708 877964 525
80505 244557 443
221635 48980 386
483790 698474 509
564060 878847 525
149674 259975 443
559793 968087 525
861212 578791 525
677045 337281 509
163161 702058 509
314008 750816 509
907791 830169 525
575243 499115 470
839235 30625 525
759669 932376 525
814117 660592 504
149908 794792 509
29786 419052 449
837627 750224 468
973833 994658 427
935987 830856 525
957733 40985 525
191389 576046 470
863114 824100 525
268620 63365 443
287002 84756 443
158819 735996 509
596765 791510 509
69751 746697 509
286489 15340 443
935568 202277 525
249048 912260 525
86221 954030 525
56886 89661 351
324005 803749 509
856668 914877 476
891946 521561 525
144691 358200 443
868913 394774 525
366925 851381 525
200163 302208 443
433832 878873 525
